{
  "generated_at": "2026-04-27T13:43:55.210Z",
  "pages": {
    "base_url": "https://charlespura.github.io/gtihubstats"
  },
  "user": {
    "login": "charlespura",
    "name": "Charles Pura",
    "repos": 62,
    "followers": 23,
    "following": 3
  },
  "range": {
    "from": "2025-04-27",
    "to": "2026-04-27"
  },
  "contributions": {
    "total": 1468
  },
  "streaks": {
    "current": {
      "days": 43,
      "from": "2026-03-15",
      "to": "2026-04-26"
    },
    "longest": {
      "days": 43,
      "from": "2026-03-15",
      "to": "2026-04-26"
    }
  },
  "milestones": {
    "current": 43,
    "next": 60,
    "previous": 30,
    "progress": 0.43333333333333335,
    "milestones": [
      7,
      14,
      30,
      60,
      90,
      100,
      180,
      365,
      500,
      730,
      1000
    ]
  },
  "highlights": {
    "best_day": {
      "date": "2025-12-31",
      "count": 50
    },
    "best_week": {
      "from": "2025-12-25",
      "to": "2025-12-31",
      "total": 156
    }
  },
  "heatmap": {
    "weeks": 16,
    "max": 41,
    "days": [
      {
        "date": "2026-01-06",
        "count": 16
      },
      {
        "date": "2026-01-07",
        "count": 3
      },
      {
        "date": "2026-01-08",
        "count": 9
      },
      {
        "date": "2026-01-09",
        "count": 5
      },
      {
        "date": "2026-01-10",
        "count": 3
      },
      {
        "date": "2026-01-11",
        "count": 4
      },
      {
        "date": "2026-01-12",
        "count": 25
      },
      {
        "date": "2026-01-13",
        "count": 11
      },
      {
        "date": "2026-01-14",
        "count": 12
      },
      {
        "date": "2026-01-15",
        "count": 9
      },
      {
        "date": "2026-01-16",
        "count": 7
      },
      {
        "date": "2026-01-17",
        "count": 4
      },
      {
        "date": "2026-01-18",
        "count": 4
      },
      {
        "date": "2026-01-19",
        "count": 11
      },
      {
        "date": "2026-01-20",
        "count": 17
      },
      {
        "date": "2026-01-21",
        "count": 7
      },
      {
        "date": "2026-01-22",
        "count": 1
      },
      {
        "date": "2026-01-23",
        "count": 10
      },
      {
        "date": "2026-01-24",
        "count": 16
      },
      {
        "date": "2026-01-25",
        "count": 0
      },
      {
        "date": "2026-01-26",
        "count": 0
      },
      {
        "date": "2026-01-27",
        "count": 0
      },
      {
        "date": "2026-01-28",
        "count": 3
      },
      {
        "date": "2026-01-29",
        "count": 8
      },
      {
        "date": "2026-01-30",
        "count": 6
      },
      {
        "date": "2026-01-31",
        "count": 8
      },
      {
        "date": "2026-02-01",
        "count": 9
      },
      {
        "date": "2026-02-02",
        "count": 5
      },
      {
        "date": "2026-02-03",
        "count": 7
      },
      {
        "date": "2026-02-04",
        "count": 1
      },
      {
        "date": "2026-02-05",
        "count": 17
      },
      {
        "date": "2026-02-06",
        "count": 14
      },
      {
        "date": "2026-02-07",
        "count": 14
      },
      {
        "date": "2026-02-08",
        "count": 21
      },
      {
        "date": "2026-02-09",
        "count": 3
      },
      {
        "date": "2026-02-10",
        "count": 15
      },
      {
        "date": "2026-02-11",
        "count": 15
      },
      {
        "date": "2026-02-12",
        "count": 19
      },
      {
        "date": "2026-02-13",
        "count": 20
      },
      {
        "date": "2026-02-14",
        "count": 4
      },
      {
        "date": "2026-02-15",
        "count": 5
      },
      {
        "date": "2026-02-16",
        "count": 13
      },
      {
        "date": "2026-02-17",
        "count": 41
      },
      {
        "date": "2026-02-18",
        "count": 11
      },
      {
        "date": "2026-02-19",
        "count": 0
      },
      {
        "date": "2026-02-20",
        "count": 0
      },
      {
        "date": "2026-02-21",
        "count": 22
      },
      {
        "date": "2026-02-22",
        "count": 1
      },
      {
        "date": "2026-02-23",
        "count": 3
      },
      {
        "date": "2026-02-24",
        "count": 1
      },
      {
        "date": "2026-02-25",
        "count": 5
      },
      {
        "date": "2026-02-26",
        "count": 4
      },
      {
        "date": "2026-02-27",
        "count": 5
      },
      {
        "date": "2026-02-28",
        "count": 5
      },
      {
        "date": "2026-03-01",
        "count": 1
      },
      {
        "date": "2026-03-02",
        "count": 7
      },
      {
        "date": "2026-03-03",
        "count": 4
      },
      {
        "date": "2026-03-04",
        "count": 2
      },
      {
        "date": "2026-03-05",
        "count": 14
      },
      {
        "date": "2026-03-06",
        "count": 4
      },
      {
        "date": "2026-03-07",
        "count": 6
      },
      {
        "date": "2026-03-08",
        "count": 7
      },
      {
        "date": "2026-03-09",
        "count": 0
      },
      {
        "date": "2026-03-10",
        "count": 2
      },
      {
        "date": "2026-03-11",
        "count": 0
      },
      {
        "date": "2026-03-12",
        "count": 0
      },
      {
        "date": "2026-03-13",
        "count": 2
      },
      {
        "date": "2026-03-14",
        "count": 0
      },
      {
        "date": "2026-03-15",
        "count": 13
      },
      {
        "date": "2026-03-16",
        "count": 1
      },
      {
        "date": "2026-03-17",
        "count": 1
      },
      {
        "date": "2026-03-18",
        "count": 7
      },
      {
        "date": "2026-03-19",
        "count": 13
      },
      {
        "date": "2026-03-20",
        "count": 1
      },
      {
        "date": "2026-03-21",
        "count": 1
      },
      {
        "date": "2026-03-22",
        "count": 4
      },
      {
        "date": "2026-03-23",
        "count": 4
      },
      {
        "date": "2026-03-24",
        "count": 11
      },
      {
        "date": "2026-03-25",
        "count": 10
      },
      {
        "date": "2026-03-26",
        "count": 1
      },
      {
        "date": "2026-03-27",
        "count": 1
      },
      {
        "date": "2026-03-28",
        "count": 36
      },
      {
        "date": "2026-03-29",
        "count": 4
      },
      {
        "date": "2026-03-30",
        "count": 5
      },
      {
        "date": "2026-03-31",
        "count": 24
      },
      {
        "date": "2026-04-01",
        "count": 7
      },
      {
        "date": "2026-04-02",
        "count": 13
      },
      {
        "date": "2026-04-03",
        "count": 8
      },
      {
        "date": "2026-04-04",
        "count": 1
      },
      {
        "date": "2026-04-05",
        "count": 4
      },
      {
        "date": "2026-04-06",
        "count": 3
      },
      {
        "date": "2026-04-07",
        "count": 2
      },
      {
        "date": "2026-04-08",
        "count": 3
      },
      {
        "date": "2026-04-09",
        "count": 2
      },
      {
        "date": "2026-04-10",
        "count": 6
      },
      {
        "date": "2026-04-11",
        "count": 1
      },
      {
        "date": "2026-04-12",
        "count": 24
      },
      {
        "date": "2026-04-13",
        "count": 1
      },
      {
        "date": "2026-04-14",
        "count": 3
      },
      {
        "date": "2026-04-15",
        "count": 1
      },
      {
        "date": "2026-04-16",
        "count": 1
      },
      {
        "date": "2026-04-17",
        "count": 2
      },
      {
        "date": "2026-04-18",
        "count": 4
      },
      {
        "date": "2026-04-19",
        "count": 11
      },
      {
        "date": "2026-04-20",
        "count": 6
      },
      {
        "date": "2026-04-21",
        "count": 1
      },
      {
        "date": "2026-04-22",
        "count": 21
      },
      {
        "date": "2026-04-23",
        "count": 3
      },
      {
        "date": "2026-04-24",
        "count": 1
      },
      {
        "date": "2026-04-25",
        "count": 3
      },
      {
        "date": "2026-04-26",
        "count": 5
      },
      {
        "date": "2026-04-27",
        "count": 0
      }
    ]
  },
  "languages": [
    {
      "name": "HTML",
      "repos": 30
    },
    {
      "name": "JavaScript",
      "repos": 11
    },
    {
      "name": "PHP",
      "repos": 6
    },
    {
      "name": "TypeScript",
      "repos": 2
    },
    {
      "name": "CSS",
      "repos": 2
    },
    {
      "name": "Blade",
      "repos": 1
    },
    {
      "name": "Python",
      "repos": 1
    }
  ],
  "repos": {
    "top": [
      {
        "name": "Sampledec15",
        "url": "https://github.com/charlespura/Sampledec15",
        "stars": 2,
        "pushed_at": "2025-12-15T01:00:11Z",
        "description": ""
      },
      {
        "name": "Creative-Button-Hover-Effects",
        "url": "https://github.com/charlespura/Creative-Button-Hover-Effects",
        "stars": 2,
        "pushed_at": "2025-12-12T10:41:30Z",
        "description": ""
      },
      {
        "name": "gtihubstats",
        "url": "https://github.com/charlespura/gtihubstats",
        "stars": 0,
        "pushed_at": "2026-04-27T08:14:50Z",
        "description": ""
      },
      {
        "name": "BakesbyRica",
        "url": "https://github.com/charlespura/BakesbyRica",
        "stars": 0,
        "pushed_at": "2026-04-26T14:48:42Z",
        "description": ""
      },
      {
        "name": "BCPGradSongWithLyrics",
        "url": "https://github.com/charlespura/BCPGradSongWithLyrics",
        "stars": 0,
        "pushed_at": "2026-04-25T14:36:45Z",
        "description": ""
      },
      {
        "name": "Client-Project-Payment-Management-System",
        "url": "https://github.com/charlespura/Client-Project-Payment-Management-System",
        "stars": 0,
        "pushed_at": "2026-04-20T06:11:33Z",
        "description": ""
      },
      {
        "name": "MyTestimonial",
        "url": "https://github.com/charlespura/MyTestimonial",
        "stars": 0,
        "pushed_at": "2026-04-19T13:23:51Z",
        "description": ""
      },
      {
        "name": "DotMatrixAnimator",
        "url": "https://github.com/charlespura/DotMatrixAnimator",
        "stars": 0,
        "pushed_at": "2026-04-17T06:58:18Z",
        "description": ""
      }
    ],
    "recent": [
      {
        "name": "gtihubstats",
        "url": "https://github.com/charlespura/gtihubstats",
        "pushed_at": "2026-04-27T08:14:50Z"
      },
      {
        "name": "BakesbyRica",
        "url": "https://github.com/charlespura/BakesbyRica",
        "pushed_at": "2026-04-26T14:48:42Z"
      },
      {
        "name": "BCPGradSongWithLyrics",
        "url": "https://github.com/charlespura/BCPGradSongWithLyrics",
        "pushed_at": "2026-04-25T14:36:45Z"
      },
      {
        "name": "Client-Project-Payment-Management-System",
        "url": "https://github.com/charlespura/Client-Project-Payment-Management-System",
        "pushed_at": "2026-04-20T06:11:33Z"
      },
      {
        "name": "MyTestimonial",
        "url": "https://github.com/charlespura/MyTestimonial",
        "pushed_at": "2026-04-19T13:23:51Z"
      },
      {
        "name": "DotMatrixAnimator",
        "url": "https://github.com/charlespura/DotMatrixAnimator",
        "pushed_at": "2026-04-17T06:58:18Z"
      }
    ]
  }
}
